Team Project Proposal
…
# Check for NA and NaN values in the monthly_avg_all_countries_initial dataframe
nan_check_initial <- sapply(monthly_avg_all_countries_initial, function(x) sum(is.na(x)))
print(nan_check_initial)

    Country        year       month monthly_avg 
          0           0           0       32651 

# Display rows with NA and NaN values
rows_with_nan_initial <- monthly_avg_all_countries_initial[apply(monthly_avg_all_countries_initial, 1, function(row) any(is.na(row))), ]
print(rows_with_nan_initial)

# A tibble: 32,651 × 4
# Groups:   Country, year [3,860]
   Country      year month monthly_avg
   <chr>       <dbl> <chr>       <dbl>
 1 Afghanistan  1838 05            NaN
 2 Afghanistan  1838 12            NaN
 3 Afghanistan  1839 01            NaN
 4 Afghanistan  1839 02            NaN
 5 Afghanistan  1839 03            NaN
 6 Afghanistan  1839 04            NaN
 7 Afghanistan  1839 05            NaN
 8 Afghanistan  1839 06            NaN
 9 Afghanistan  1839 07            NaN
10 Afghanistan  1839 08            NaN
# ℹ 32,641 more rows
…
